{
    "cordova-plugin-device": {
        "source": {
            "type": "registry",
            "id": "cordova-plugin-device"
        },
        "is_top_level": true,
        "variables": {}
    },
    "cordova-plugin-console": {
        "source": {
            "type": "registry",
            "id": "cordova-plugin-console"
        },
        "is_top_level": true,
        "variables": {}
    },
    "cordova-plugin-whitelist": {
        "source": {
            "type": "registry",
            "id": "cordova-plugin-whitelist"
        },
        "is_top_level": true,
        "variables": {}
    },
    "cordova-plugin-splashscreen": {
        "source": {
            "type": "registry",
            "id": "cordova-plugin-splashscreen"
        },
        "is_top_level": true,
        "variables": {}
    },
    "cordova-plugin-statusbar": {
        "source": {
            "type": "registry",
            "id": "cordova-plugin-statusbar"
        },
        "is_top_level": true,
        "variables": {}
    },
    "ionic-plugin-keyboard": {
        "source": {
            "type": "registry",
            "id": "ionic-plugin-keyboard"
        },
        "is_top_level": true,
        "variables": {}
    },
    "cordova-plugin-compat": {
        "source": {
            "type": "registry",
            "id": "cordova-plugin-compat"
        },
        "is_top_level": false,
        "variables": {}
    },
    "cl.rmd.cordova.dialoggps": {
        "source": {
            "type": "git",
            "url": "https://github.com/rodrigo-martinezd/cordova-dialog-gps.git",
            "subdir": "."
        },
        "is_top_level": true,
        "variables": {}
    },
    "cordova-plugin-fastrde-checkgps": {
        "source": {
            "type": "registry",
            "id": "cordova-plugin-fastrde-checkgps"
        },
        "is_top_level": true,
        "variables": {}
    },
    "cordova-plugin-geolocation": {
        "source": {
            "type": "registry",
            "id": "cordova-plugin-geolocation"
        },
        "is_top_level": true,
        "variables": {}
    }
}