{
    "prepare_queue": {
        "installed": [],
        "uninstalled": []
    },
    "config_munge": {
        "files": {}
    },
    "installed_plugins": {
        "cl.rmd.cordova.dialoggps": {
            "PACKAGE_NAME": "com.ionicframework.ranad385431"
        },
        "cordova-plugin-console": {
            "PACKAGE_NAME": "com.ionicframework.ranad385431"
        },
        "cordova-plugin-device": {
            "PACKAGE_NAME": "com.ionicframework.ranad385431"
        },
        "cordova-plugin-fastrde-checkgps": {
            "GEOLOCATION_USAGE_DESCRIPTION": " ",
            "PACKAGE_NAME": "com.ionicframework.ranad385431"
        },
        "cordova-plugin-geolocation": {
            "GEOLOCATION_USAGE_DESCRIPTION": " ",
            "PACKAGE_NAME": "com.ionicframework.ranad385431"
        },
        "cordova-plugin-splashscreen": {
            "PACKAGE_NAME": "com.ionicframework.ranad385431"
        },
        "cordova-plugin-statusbar": {
            "PACKAGE_NAME": "com.ionicframework.ranad385431"
        },
        "cordova-plugin-whitelist": {
            "PACKAGE_NAME": "com.ionicframework.ranad385431"
        },
        "ionic-plugin-keyboard": {
            "PACKAGE_NAME": "com.ionicframework.ranad385431"
        }
    },
    "dependent_plugins": {
        "cordova-plugin-compat": {
            "PACKAGE_NAME": "com.ionicframework.ranad385431"
        }
    }
}